0.45548654 0.48861283 0.49896482 74.447205 0.48654243 0.49275362 
483
6%1 0 0 81 0 0 
60%0 1 0 83 1 1 
78%0 1 1 53 0 0 
110%0 1 1 58 1 1 
133%1 0 0 61 1 0 
143%0 0 0 98 1 1 
147%0 1 0 53 1 0 
161%0 1 1 67 0 1 
170%0 1 0 67 0 1 
180%0 1 0 89 0 1 
183%0 0 0 79 0 0 
222%1 0 1 48 1 1 
265%1 0 1 83 0 1 
289%0 0 1 81 0 1 
309%1 1 1 84 1 0 
320%0 0 0 49 1 0 
330%0 1 1 75 0 1 
344%1 0 0 56 0 0 
384%1 1 0 61 0 1 
394%0 1 0 52 1 0 
406%0 1 1 71 1 1 
429%1 0 1 65 1 0 
440%1 0 0 71 0 1 
447%0 1 1 99 0 0 
468%0 1 1 67 0 1 
503%0 0 1 63 1 0 
509%0 0 1 54 1 1 
522%0 1 0 79 0 1 
533%1 1 0 47 0 1 
554%0 0 0 97 1 1 
562%1 1 0 99 1 0 
570%1 0 1 86 0 0 
580%0 1 0 72 0 1 
594%1 1 0 82 1 1 
614%1 0 1 62 0 1 
622%1 0 0 70 0 0 
627%0 1 0 70 0 1 
644%1 1 1 97 0 1 
666%1 0 1 69 1 1 
672%0 1 1 96 0 0 
684%1 0 1 97 1 1 
691%1 0 0 82 0 0 
716%1 0 0 57 0 1 
734%1 0 0 61 0 1 
739%1 0 0 55 1 0 
756%1 0 1 64 1 1 
764%1 0 1 63 1 1 
780%1 0 0 76 1 1 
809%0 0 1 90 0 0 
840%0 0 1 98 1 0 
858%0 0 0 91 1 0 
882%1 0 0 92 0 1 
898%1 0 1 57 1 1 
905%0 1 1 50 0 0 
922%1 0 0 57 1 1 
961%1 1 1 96 1 1 
975%0 1 1 96 1 0 
986%1 1 1 65 1 0 
1016%1 0 1 68 0 0 
1056%0 1 1 78 1 1 
1082%0 0 0 53 0 1 
1095%1 0 0 56 0 1 
1113%0 0 0 51 0 0 
1121%0 1 1 97 1 0 
1159%0 1 0 91 0 0 
1198%0 1 1 65 0 0 
1202%1 1 1 72 0 1 
1212%0 1 1 68 0 1 
1251%1 0 0 50 0 0 
1278%0 1 1 84 0 0 
1280%0 1 1 95 0 1 
1298%1 1 1 84 0 0 
1362%0 1 1 56 0 0 
1369%1 1 0 77 0 0 
1395%1 0 0 57 1 0 
1407%0 0 1 87 0 1 
1417%0 1 1 52 0 1 
1440%1 0 0 68 1 0 
1457%1 0 1 95 0 1 
1514%0 1 1 69 0 0 
1533%1 1 1 92 1 0 
1551%0 1 1 75 1 0 
1559%0 0 0 81 1 1 
1570%0 0 1 86 0 1 
1592%0 0 1 98 1 0 
1604%0 0 0 94 0 1 
1621%1 0 0 94 0 0 
1632%0 0 1 91 0 1 
1641%0 1 1 84 0 1 
1651%1 1 0 59 0 0 
1689%1 1 1 93 1 0 
1726%1 1 1 55 1 1 
1732%1 0 0 88 1 0 
1740%1 0 1 79 0 0 
1792%1 0 1 88 0 1 
1803%0 1 0 68 1 0 
1821%1 0 0 58 1 1 
1872%0 1 1 93 1 1 
1883%1 1 1 87 0 1 
1892%0 1 1 91 1 1 
1901%0 0 0 85 1 0 
1905%0 0 1 98 0 0 
1926%0 1 0 87 1 1 
1930%1 1 0 72 1 1 
1965%0 0 1 96 0 0 
1991%1 0 0 98 1 1 
2025%1 1 1 86 0 0 
2043%1 1 1 72 1 0 
2052%0 0 0 59 0 0 
2061%0 0 1 54 1 0 
2139%0 1 0 84 0 1 
2149%0 1 0 94 1 0 
2171%0 1 0 75 0 0 
2173%1 1 0 58 0 1 
2187%0 0 1 80 1 0 
2210%1 1 0 58 0 1 
2237%0 0 1 87 1 0 
2242%0 1 0 85 0 0 
2281%0 1 0 64 0 1 
2292%0 1 0 89 0 1 
2314%1 0 1 89 0 0 
2338%1 1 0 65 0 1 
2345%0 1 0 62 1 0 
2355%0 0 1 59 0 0 
2362%1 1 0 65 0 0 
2398%0 0 0 71 1 1 
2451%1 1 0 59 1 0 
2500%1 0 1 73 1 1 
2516%1 0 1 55 0 0 
2520%0 0 0 94 1 1 
2571%0 0 0 95 1 1 
2583%0 1 1 83 1 0 
2592%1 1 0 80 0 1 
2601%1 0 0 91 1 1 
2637%0 1 1 72 1 0 
2667%1 0 0 54 1 1 
2705%1 1 1 57 1 0 
2737%0 0 1 55 1 0 
2763%1 1 1 83 0 1 
2804%1 1 0 54 1 1 
2810%1 1 1 62 1 1 
2833%0 0 1 90 1 1 
2865%0 1 0 98 0 1 
2875%0 1 1 78 0 1 
2895%1 0 1 68 1 1 
2920%1 0 1 90 0 0 
2939%0 0 1 77 1 1 
2957%1 1 0 60 1 1 
2973%0 0 0 66 0 0 
2997%1 0 0 99 0 0 
3007%0 1 0 57 0 0 
3023%0 0 0 87 1 0 
3031%0 1 1 89 1 0 
3041%1 1 0 91 0 0 
3076%0 1 0 64 1 1 
3105%0 0 0 76 0 1 
3133%0 1 1 71 1 1 
3171%1 1 0 71 1 0 
3186%0 0 0 65 0 0 
3199%0 0 1 81 0 1 
3215%0 1 1 89 1 0 
3235%1 0 1 92 0 0 
3289%0 1 1 79 0 0 
3301%1 0 0 91 0 1 
3321%0 1 1 83 1 1 
3348%0 1 0 70 1 0 
3363%1 1 1 96 1 0 
3409%1 0 1 98 1 0 
3437%0 1 0 58 0 0 
3453%1 1 1 87 1 0 
3460%0 1 0 68 0 1 
3483%0 1 0 63 0 1 
3498%0 0 1 77 0 1 
3523%1 0 0 85 0 1 
3532%0 0 1 55 0 1 
3558%1 0 1 70 0 0 
3587%0 0 1 91 0 0 
3605%0 1 1 66 0 0 
3613%0 0 1 69 1 0 
3640%1 0 1 85 1 0 
3663%0 0 0 72 1 1 
3685%1 1 0 61 1 0 
3720%1 0 1 90 0 0 
3745%0 1 0 89 0 0 
3752%1 0 0 71 0 0 
3783%0 1 0 63 0 0 
3826%1 1 1 77 1 0 
3841%0 0 1 75 0 0 
3848%0 1 0 65 1 0 
3878%1 1 1 76 1 1 
3926%1 1 0 65 1 1 
3934%1 0 1 73 0 0 
3943%1 1 1 60 1 0 
3949%0 1 0 73 0 1 
3972%1 0 0 84 1 0 
3986%1 1 1 87 0 1 
3996%1 1 1 84 0 1 
4000%0 0 0 68 0 1 
4010%0 0 0 77 1 0 
4027%1 0 0 60 0 1 
4048%1 0 0 71 1 0 
4123%1 1 1 95 1 0 
4160%0 1 0 63 0 1 
4172%1 1 0 75 1 0 
4176%1 0 1 76 1 0 
4193%1 0 0 67 0 0 
4244%1 0 1 67 0 1 
4281%0 1 1 70 0 0 
4292%0 0 0 70 1 1 
4314%0 0 0 86 0 1 
4326%1 0 0 64 1 0 
4339%1 1 0 81 0 0 
4358%1 1 1 54 0 0 
4376%1 0 0 63 1 0 
4383%1 1 1 86 1 1 
4400%0 1 1 77 0 0 
4423%0 1 1 56 0 0 
4463%0 1 1 90 1 1 
4484%1 1 0 53 0 1 
4511%0 0 0 70 0 0 
4517%0 1 0 94 0 0 
4527%0 1 0 92 1 1 
4538%0 0 1 80 0 0 
4571%1 0 0 94 1 1 
4580%0 1 0 97 1 0 
4611%0 1 0 75 1 1 
4612%1 1 0 92 1 0 
4643%0 1 1 70 1 0 
4650%1 1 0 79 1 0 
4653%0 0 0 72 0 1 
4672%0 0 1 53 1 1 
4680%1 1 1 84 0 1 
4718%0 1 1 78 0 1 
4724%0 1 0 65 0 0 
4736%1 0 1 66 0 0 
4767%1 0 0 98 0 1 
4794%0 0 0 53 0 0 
4832%1 1 1 80 1 0 
4855%0 0 0 54 0 1 
4875%0 0 0 69 1 1 
4895%0 0 1 62 1 0 
4904%0 1 1 64 0 0 
4910%1 1 1 66 0 1 
4922%0 0 1 67 1 0 
4923%0 1 0 68 1 1 
4949%1 0 0 97 0 0 
4958%0 1 0 70 0 1 
4980%0 1 1 93 0 0 
4982%1 0 1 65 0 1 
5003%1 0 0 61 0 1 
5026%1 0 1 99 1 0 
5034%1 1 0 70 0 0 
5057%1 0 1 66 1 0 
5062%0 1 1 70 0 1 
5081%1 0 1 53 0 0 
5094%1 0 0 56 0 1 
5100%0 0 1 74 0 1 
5141%1 0 0 60 1 1 
5163%0 1 1 56 0 1 
5175%1 0 1 62 1 1 
5198%1 1 1 93 0 1 
5204%1 0 0 89 0 1 
5235%0 0 1 94 1 0 
5245%0 1 0 96 0 0 
5257%1 1 0 64 0 1 
5287%0 0 0 54 1 0 
5297%0 0 0 72 1 0 
5302%0 1 1 60 0 0 
5312%0 1 0 78 1 0 
5337%0 1 1 69 1 1 
5341%0 1 0 58 1 0 
5370%1 1 0 60 0 1 
5380%1 0 1 69 1 1 
5451%0 0 1 62 1 0 
5455%0 0 1 56 0 1 
5496%0 0 1 68 1 1 
5525%1 1 0 95 0 0 
5539%0 0 0 81 1 0 
5543%1 0 1 56 0 1 
5566%1 1 0 78 1 0 
5578%1 1 1 80 1 0 
5581%0 1 1 90 1 1 
5593%0 0 0 58 0 0 
5653%1 0 1 72 0 1 
5683%0 0 1 73 1 1 
5707%0 1 1 56 1 0 
5723%1 1 0 90 0 1 
5729%0 1 1 80 1 1 
5767%1 0 0 57 1 1 
5800%1 0 0 56 0 0 
5829%0 0 0 67 1 0 
5841%0 1 0 54 1 0 
5862%0 0 0 73 1 1 
5879%0 1 1 75 1 0 
5904%0 0 0 84 0 1 
5917%0 1 0 75 0 1 
5929%0 1 1 96 1 1 
5963%1 1 0 65 0 1 
6002%1 1 1 59 0 1 
6031%1 0 1 58 0 0 
6040%0 0 0 76 1 1 
6062%0 1 0 64 0 0 
6083%0 0 1 72 1 1 
6118%0 1 1 78 1 1 
6153%0 0 1 71 0 1 
6169%0 0 0 78 0 1 
6225%0 0 1 90 1 0 
6251%0 0 0 91 1 0 
6256%1 0 0 62 0 1 
6260%0 0 1 88 1 0 
6308%1 0 0 69 0 0 
6310%0 0 1 67 0 1 
6321%1 0 0 94 1 0 
6333%0 1 1 78 0 1 
6341%1 1 1 80 0 0 
6345%1 1 0 58 0 0 
6364%0 0 1 53 0 1 
6388%1 0 0 55 0 0 
6415%0 0 0 54 0 1 
6444%1 1 1 93 1 1 
6471%0 1 1 95 1 1 
6484%0 1 1 79 0 0 
6490%0 1 1 88 0 0 
6503%0 0 1 56 1 0 
6527%0 0 0 70 0 0 
6538%1 0 0 80 0 0 
6561%0 1 1 83 0 1 
6569%0 0 0 78 1 0 
6586%1 1 0 95 0 0 
6593%1 0 0 69 1 1 
6621%1 0 1 95 0 1 
6635%0 0 1 79 1 0 
6640%0 1 1 95 0 0 
6654%0 1 1 76 0 0 
6685%0 0 0 92 0 1 
6696%0 0 0 60 1 1 
6704%1 1 0 98 1 0 
6765%1 0 0 94 0 0 
6820%0 0 0 53 0 1 
6869%0 1 0 60 1 1 
6951%0 1 1 63 1 0 
6958%1 0 1 91 0 1 
6981%1 0 0 90 1 1 
6998%0 1 1 75 0 0 
7013%0 1 1 91 1 1 
7022%0 1 1 80 0 1 
7034%1 1 0 84 1 1 
7041%0 1 0 89 1 0 
7054%1 1 0 80 1 1 
7063%1 0 0 73 0 0 
7078%0 0 0 64 1 1 
7084%1 1 0 53 1 1 
7101%0 0 1 72 0 1 
7181%1 1 0 73 0 1 
7187%0 0 0 87 1 0 
7202%1 0 0 77 0 0 
7217%1 0 0 84 1 1 
7221%0 1 0 60 1 0 
7229%0 0 1 54 0 1 
7253%0 1 0 88 0 0 
7275%0 0 0 60 0 1 
7290%0 0 1 53 0 0 
7313%0 0 1 64 1 1 
7317%1 1 0 74 0 0 
7333%1 0 1 60 0 1 
7348%1 1 1 73 1 0 
7358%0 0 0 67 1 1 
7374%0 1 1 85 1 0 
7390%1 0 0 98 1 0 
7408%0 1 0 84 1 1 
7413%0 1 0 62 0 0 
7425%1 1 1 61 0 0 
7446%1 0 1 69 0 1 
7466%0 1 1 61 1 0 
7471%1 1 1 82 0 0 
7490%1 1 0 73 0 0 
7511%0 1 1 89 1 1 
7520%1 1 1 98 0 1 
7558%1 1 0 75 1 1 
7568%1 0 1 95 0 1 
7602%0 0 1 64 1 0 
7608%0 0 1 88 0 0 
7635%0 0 0 73 0 0 
7647%0 0 0 95 0 0 
7676%1 0 0 86 1 1 
7686%1 0 0 65 0 0 
7703%1 0 0 55 0 0 
7719%0 1 0 98 1 0 
7728%1 1 0 87 1 0 
7740%1 0 1 99 1 0 
7752%0 1 1 73 0 0 
7764%1 1 1 56 1 0 
7811%1 0 1 58 1 0 
7861%1 0 1 65 1 1 
7877%1 0 1 59 0 0 
7951%0 1 0 63 1 1 
7963%0 1 0 88 1 1 
7997%1 1 1 78 0 1 
8011%0 0 1 54 1 1 
8021%1 1 0 75 1 1 
8074%1 0 0 84 0 0 
8082%0 0 0 57 0 0 
8094%0 0 1 66 1 0 
8108%1 0 1 87 0 0 
8137%1 1 0 71 1 1 
8176%1 0 0 53 0 0 
8184%1 1 0 59 1 0 
8198%0 1 1 72 1 1 
8205%0 1 0 74 1 0 
8241%0 0 0 54 0 0 
8269%0 1 0 98 1 0 
8292%1 0 0 53 1 1 
8310%0 1 0 54 0 0 
8314%0 0 0 83 0 1 
8330%0 1 1 54 0 0 
8341%0 1 0 57 0 0 
8353%0 1 1 83 0 1 
8359%0 1 1 97 0 0 
8385%0 1 0 74 0 0 
8401%1 1 0 76 1 1 
8408%1 0 1 70 1 1 
8426%1 1 1 62 1 0 
8436%1 0 1 97 0 1 
8450%0 1 0 93 1 1 
8454%0 0 1 99 0 1 
8492%0 0 1 64 1 0 
8504%0 0 1 90 0 1 
8548%0 1 1 58 1 0 
8571%1 0 0 89 1 0 
8603%0 0 1 68 1 1 
8629%1 1 1 57 1 1 
8690%0 1 0 68 1 0 
8703%1 0 1 65 0 0 
8720%1 0 1 75 1 1 
8743%0 0 0 91 1 0 
8756%1 1 1 86 0 1 
8779%1 1 0 69 1 0 
8792%0 0 0 75 0 0 
8815%0 0 1 77 1 0 
8823%1 1 0 57 1 1 
8837%1 0 1 60 0 0 
8858%1 0 1 59 1 1 
8868%0 0 0 93 0 0 
8890%1 1 1 85 1 1 
8981%0 1 1 76 1 1 
8987%1 0 0 77 0 0 
9004%1 0 0 82 0 1 
9088%1 1 1 97 0 1 
9099%1 0 0 83 0 1 
9155%0 1 1 95 1 0 
9211%0 0 1 56 1 1 
9227%1 1 1 97 1 1 
9253%0 0 0 78 1 1 
9291%0 1 1 92 0 0 
9305%1 0 0 84 0 1 
9336%0 0 1 53 0 1 
9388%0 1 1 89 1 0 
9408%0 0 0 72 0 1 
9419%0 0 1 81 0 0 
9445%0 1 1 74 1 1 
9451%0 0 0 59 0 1 
9515%0 0 1 86 0 1 
9573%0 0 1 77 1 1 
9584%0 0 0 64 1 1 
9592%0 0 0 71 1 1 
9607%1 1 1 75 1 0 
9626%0 0 1 66 0 1 
9636%0 1 0 82 0 0 
9644%1 0 0 75 0 0 
9652%0 0 0 61 1 0 
9681%1 0 0 63 1 0 
9720%0 0 0 60 1 1 
9740%1 0 1 65 1 1 
9758%1 1 1 98 1 1 
9761%1 0 0 66 1 1 
9801%0 1 1 59 1 1 
9823%0 1 0 62 0 0 
9828%1 1 1 89 1 1 
9840%1 1 0 73 1 1 
9850%1 0 0 68 0 0 
9877%1 1 0 83 1 1 
9907%0 1 1 64 1 0 
9912%0 0 1 62 0 0 
