35.871983 0.5120773 0.46376812 0.5169082 0.5362319 0.5241546 
414
0%75 0 1 0 0 1 
21%60 1 0 0 1 0 
32%40 0 1 0 0 0 
47%21 1 0 0 1 0 
70%32 0 1 0 0 1 
82%49 0 0 1 0 0 
106%39 0 1 1 0 1 
118%41 0 0 0 1 0 
126%40 0 1 0 1 1 
143%26 1 0 1 1 1 
175%28 1 1 0 1 1 
181%23 0 1 0 0 1 
210%20 1 0 1 1 1 
252%16 0 0 0 0 0 
279%18 1 0 1 1 0 
294%27 0 0 0 1 1 
305%46 0 0 1 0 1 
311%30 1 1 0 1 1 
317%21 0 0 1 1 1 
371%47 0 0 1 0 1 
444%20 1 1 1 0 0 
454%34 0 1 1 1 0 
463%26 1 0 0 1 0 
486%18 0 0 1 0 0 
494%41 0 0 1 1 0 
517%25 0 1 0 1 0 
525%26 1 0 1 0 1 
558%21 0 0 0 0 0 
566%19 1 0 0 0 0 
575%20 1 0 1 0 0 
591%49 1 1 1 1 1 
606%15 0 1 0 0 1 
636%55 1 0 0 1 1 
696%36 1 1 0 1 1 
707%14 1 1 1 0 1 
736%23 1 0 0 0 1 
797%21 0 1 1 1 1 
821%37 0 0 0 0 0 
848%54 1 0 1 0 0 
862%39 1 1 1 1 0 
870%51 0 1 0 0 0 
900%49 1 1 1 1 0 
968%39 1 0 1 1 1 
1000%48 0 0 1 0 1 
1020%26 0 1 0 1 1 
1038%34 0 0 1 0 0 
1059%40 0 0 0 0 0 
1095%52 0 1 1 1 0 
1169%55 1 1 0 1 0 
1220%14 0 0 1 1 0 
1224%50 1 0 1 1 0 
1233%40 0 0 1 0 1 
1274%45 0 1 0 1 0 
1287%47 0 0 1 1 0 
1320%32 1 0 0 1 0 
1341%28 0 0 0 0 0 
1389%44 0 0 0 1 1 
1407%34 1 0 0 1 1 
1457%16 1 0 1 1 1 
1500%27 0 1 0 0 0 
1537%51 0 0 1 0 0 
1564%21 1 0 0 0 0 
1625%32 1 0 1 1 1 
1661%20 1 1 0 1 0 
1691%53 0 0 1 1 0 
1700%52 0 1 0 1 1 
1707%32 1 1 0 1 0 
1740%26 0 0 1 0 1 
1778%55 0 0 0 1 0 
1823%45 1 1 0 1 0 
1877%32 1 1 0 1 0 
1885%43 1 0 0 1 0 
1902%24 0 0 1 0 0 
1930%46 1 0 1 1 1 
1949%21 0 0 0 1 1 
1958%53 1 1 1 0 1 
1969%45 0 1 0 1 1 
2004%19 1 1 1 1 0 
2012%56 1 0 1 1 0 
2022%31 1 1 1 1 1 
2036%55 0 1 1 0 1 
2038%44 1 0 0 0 0 
2055%16 0 1 1 0 1 
2074%33 1 1 1 0 1 
2087%25 1 0 0 0 1 
2114%51 1 1 1 1 0 
2132%32 1 0 0 1 0 
2145%48 1 0 1 0 1 
2179%35 0 0 0 0 1 
2204%43 0 0 1 0 0 
2213%48 1 0 1 0 1 
2233%41 1 1 0 1 0 
2239%47 0 1 0 1 0 
2297%43 1 0 1 1 1 
2307%48 1 1 0 0 1 
2318%38 1 0 1 0 0 
2340%32 1 0 1 0 0 
2385%28 0 1 0 1 0 
2435%42 1 0 0 1 0 
2444%36 1 1 0 0 1 
2466%30 1 0 1 1 1 
2501%22 1 0 0 0 0 
2516%45 0 0 1 1 0 
2525%48 0 1 1 1 1 
2555%25 1 1 0 0 1 
2587%48 1 0 1 1 1 
2595%38 0 1 0 1 1 
2632%49 0 1 0 0 1 
2671%29 0 0 0 0 0 
2701%29 1 1 0 1 0 
2737%39 0 1 0 1 1 
2798%35 1 1 1 0 1 
2807%44 0 1 1 1 0 
2826%45 1 0 0 0 1 
2846%33 0 0 0 0 1 
2857%20 0 0 1 1 1 
2870%20 1 0 1 0 1 
2893%28 0 1 1 1 1 
2898%35 1 0 1 0 0 
2915%37 1 0 0 1 1 
2921%33 1 0 1 0 1 
2942%50 0 1 0 0 1 
2959%18 1 1 1 0 1 
2973%22 0 1 1 0 0 
3000%37 0 1 1 0 1 
3013%56 0 0 0 1 1 
3027%31 0 0 0 0 1 
3034%16 1 0 1 1 1 
3046%42 0 0 1 0 1 
3054%28 0 1 0 1 1 
3068%23 1 0 1 0 1 
3077%25 1 1 0 1 1 
3150%21 0 1 1 0 1 
3180%45 0 1 0 0 0 
3193%44 1 0 0 0 1 
3207%37 0 1 1 1 0 
3215%29 0 1 0 1 1 
3235%33 1 1 1 1 1 
3256%25 0 0 1 0 1 
3303%39 1 1 1 0 1 
3316%49 0 1 0 1 0 
3369%48 1 1 0 1 1 
3376%35 0 0 0 1 0 
3391%15 1 0 1 0 1 
3398%26 1 1 0 1 1 
3407%39 1 1 0 0 1 
3430%35 0 1 1 1 0 
3445%52 0 1 0 0 1 
3470%49 0 0 1 0 1 
3569%45 0 1 1 1 1 
3584%47 1 0 0 1 0 
3609%30 1 0 0 0 0 
3630%28 1 0 1 0 1 
3646%27 0 1 1 0 1 
3670%32 0 1 0 0 0 
3694%52 0 0 0 0 0 
3738%47 1 0 1 0 0 
3764%43 1 0 0 0 0 
3801%47 0 1 1 1 1 
3810%33 1 0 1 0 0 
3834%17 1 0 1 1 0 
3841%26 0 0 0 1 0 
3876%24 1 1 1 0 0 
3880%30 1 1 1 0 1 
3908%19 0 0 0 0 0 
3924%46 0 1 0 1 0 
3926%23 1 1 0 0 0 
3989%45 1 1 1 0 1 
3998%26 1 0 1 0 1 
4022%22 0 1 1 0 1 
4041%56 0 0 0 0 1 
4065%23 1 0 1 1 0 
4074%46 0 0 0 1 0 
4095%51 0 0 0 1 0 
4105%37 0 1 1 0 1 
4114%48 0 1 1 1 0 
4216%52 0 0 1 1 1 
4254%28 0 1 0 0 1 
4286%29 0 1 1 0 1 
4293%47 0 0 0 1 1 
4307%20 1 1 0 0 1 
4331%20 0 0 0 0 1 
4340%19 0 1 0 1 1 
4432%25 1 0 1 0 0 
4442%41 0 1 0 0 0 
4463%53 0 1 0 1 0 
4476%56 1 0 1 0 0 
4511%33 1 1 0 0 1 
4543%24 1 0 1 0 1 
4567%29 0 0 0 0 1 
4590%15 0 1 0 1 0 
4595%31 0 1 0 1 0 
4611%20 0 0 1 0 1 
4629%43 1 1 1 1 0 
4640%56 0 0 1 0 0 
4657%18 1 0 0 1 1 
4668%44 0 0 1 1 0 
4686%18 1 0 0 1 1 
4693%31 1 0 1 1 1 
4718%26 0 0 0 0 0 
4731%43 0 1 1 0 1 
4740%54 0 0 1 1 0 
4821%45 0 0 0 1 1 
4840%49 1 0 1 0 0 
4848%30 1 0 0 1 0 
4860%56 1 1 0 0 0 
4900%39 1 0 1 1 1 
4917%56 1 0 1 1 1 
4933%25 1 0 1 1 1 
4980%55 0 0 1 0 0 
5011%30 0 1 1 1 1 
5036%19 0 1 1 0 1 
5049%53 1 0 1 0 1 
5057%17 0 0 1 1 1 
5137%16 1 0 1 0 1 
5156%54 1 0 1 1 1 
5172%42 1 0 0 1 1 
5192%42 1 0 0 1 0 
5199%30 0 1 0 1 0 
5220%31 0 0 1 1 1 
5227%53 0 0 1 1 0 
5242%34 0 1 0 1 1 
5266%17 0 0 0 0 1 
5292%50 1 0 0 0 1 
5305%16 1 0 1 1 0 
5314%39 1 1 0 0 0 
5373%22 1 1 1 1 0 
5412%56 1 1 1 1 0 
5437%16 0 1 0 0 1 
5453%24 1 0 0 1 0 
5507%32 0 1 0 1 1 
5512%54 1 1 0 1 0 
5569%34 0 1 1 0 1 
5579%41 1 1 0 0 0 
5585%18 1 0 1 0 0 
5604%45 1 1 0 1 1 
5625%16 1 0 1 0 1 
5639%40 1 1 1 1 1 
5651%16 1 1 1 0 0 
5667%51 0 0 0 0 0 
5690%49 1 0 0 1 1 
5714%26 0 1 1 0 1 
5739%54 0 1 1 1 0 
5742%39 0 0 1 1 0 
5782%49 0 1 0 0 0 
5827%38 1 0 0 1 1 
5862%29 1 1 1 1 0 
5871%42 1 1 1 1 1 
5892%56 0 0 0 0 1 
5910%20 0 1 1 0 1 
5933%15 1 0 1 1 0 
5939%40 1 0 0 1 0 
5945%29 1 1 0 1 1 
5960%39 0 0 1 0 0 
5964%32 0 0 0 0 1 
5979%18 1 0 1 0 0 
6000%50 1 0 0 1 1 
6056%17 0 0 1 0 0 
6066%31 1 0 0 0 1 
6074%52 1 0 1 0 1 
6088%53 0 1 0 0 0 
6103%16 0 1 0 1 1 
6111%29 1 1 0 0 1 
6147%43 1 0 0 1 0 
6157%30 1 0 1 0 0 
6171%53 0 1 0 1 1 
6243%24 0 0 1 0 0 
6252%31 1 0 1 0 0 
6258%25 0 1 1 1 0 
6262%47 0 1 1 0 1 
6277%41 1 0 0 1 0 
6309%52 0 0 1 1 1 
6312%50 0 1 1 1 1 
6329%56 0 1 1 1 1 
6337%36 0 1 1 0 1 
6356%44 0 0 0 0 1 
6392%32 1 1 0 1 0 
6418%34 1 0 0 1 0 
6438%24 1 0 0 1 1 
6458%47 1 0 1 1 0 
6519%43 1 1 0 0 0 
6540%30 0 0 1 0 0 
6545%21 0 0 1 1 1 
6557%45 1 1 1 1 0 
6564%17 1 1 0 1 1 
6577%16 1 1 1 1 0 
6604%16 1 0 1 0 1 
6625%24 0 1 1 0 1 
6639%51 1 1 1 1 1 
6665%18 1 1 1 0 1 
6680%53 0 0 1 1 0 
6720%37 1 1 1 0 1 
6755%45 1 0 1 1 1 
6772%28 0 0 0 0 1 
6795%51 1 0 0 1 1 
6863%54 1 0 0 1 0 
6895%32 1 1 1 1 0 
6900%54 0 1 1 1 1 
6910%24 0 1 0 1 1 
6946%53 0 0 0 1 0 
6954%41 1 1 1 1 0 
7047%52 0 1 0 0 1 
7051%41 0 0 0 0 1 
7071%36 0 0 1 0 0 
7080%24 1 0 0 0 1 
7107%45 1 1 1 1 1 
7115%23 1 1 0 1 0 
7142%48 0 0 0 1 1 
7197%25 0 0 0 1 0 
7208%27 0 0 0 1 1 
7214%23 0 1 0 0 0 
7224%31 0 0 0 1 1 
7290%20 1 0 1 1 0 
7306%42 0 1 1 0 1 
7333%51 1 1 0 1 0 
7406%19 0 0 0 0 1 
7417%25 1 1 0 1 1 
7426%28 1 0 1 1 1 
7431%15 1 0 1 0 1 
7472%45 1 0 0 1 0 
7533%56 1 1 1 0 0 
7573%15 1 1 0 0 1 
7580%20 1 1 1 0 1 
7605%54 1 1 1 0 0 
7609%27 0 1 1 1 0 
7629%15 1 0 1 0 0 
7636%46 0 1 0 1 0 
7669%42 1 1 1 1 0 
7682%48 1 0 1 1 0 
7696%16 0 1 1 0 0 
7704%15 0 1 1 1 0 
7711%52 1 1 0 0 1 
7721%37 0 1 1 1 0 
7765%38 1 0 0 1 1 
7798%32 1 1 1 0 1 
7841%44 1 1 1 1 0 
7855%47 0 1 0 0 1 
7873%24 1 1 0 1 0 
7895%49 0 1 1 1 1 
7946%17 1 0 1 0 1 
7973%47 0 1 1 0 1 
7979%27 0 0 1 1 1 
8013%52 0 0 1 0 1 
8025%49 0 1 0 0 0 
8033%36 1 1 0 1 1 
8046%53 0 0 1 1 1 
8088%24 0 1 1 1 0 
8111%23 0 0 1 1 1 
8149%46 0 1 1 1 0 
8180%37 0 0 0 1 1 
8234%47 0 1 0 1 0 
8245%18 1 1 0 1 0 
8260%37 0 0 0 1 0 
8266%56 1 0 1 1 1 
8312%47 0 0 0 0 1 
8344%51 1 1 0 0 1 
8366%42 0 1 1 1 0 
8395%56 0 0 1 0 1 
8413%28 1 1 0 1 0 
8453%37 0 1 0 0 0 
8465%38 1 0 0 0 0 
8532%44 1 0 0 0 1 
8587%22 0 0 1 1 1 
8607%51 0 0 1 1 0 
8623%39 1 0 0 1 0 
8632%45 1 0 1 1 1 
8659%50 0 0 1 1 1 
8672%19 1 0 0 0 1 
8687%30 0 1 1 0 0 
8749%39 1 0 0 1 0 
8764%24 1 0 0 0 1 
8774%23 1 1 1 0 0 
8787%18 1 1 0 1 0 
8805%49 1 1 1 1 0 
8818%52 0 0 1 0 1 
8830%46 0 0 1 0 1 
8850%53 0 1 0 1 1 
8860%17 1 0 1 0 1 
8899%18 0 0 1 0 0 
8962%42 1 1 0 0 0 
8998%50 0 1 0 1 0 
9050%28 1 0 0 0 0 
9118%20 1 0 0 0 1 
9127%26 1 1 1 0 1 
9131%37 0 1 1 1 1 
9143%30 1 0 1 1 0 
9148%20 1 0 0 1 1 
9160%35 0 1 0 1 0 
9181%42 1 0 0 1 0 
9218%53 1 0 0 1 1 
9253%38 1 1 1 1 0 
9259%39 1 0 0 1 0 
9269%31 0 0 1 0 0 
9284%49 0 1 0 1 0 
9311%50 1 0 0 0 1 
9343%18 1 1 0 0 1 
9391%27 0 0 1 1 0 
9432%19 0 1 1 0 0 
9454%53 0 1 1 1 0 
9506%55 0 1 1 1 1 
9527%20 0 0 0 0 0 
9536%20 1 0 0 1 0 
9552%44 1 0 0 1 0 
9579%48 0 0 0 1 1 
9608%31 1 1 0 0 0 
9627%44 1 1 1 0 1 
9640%25 1 0 0 1 1 
9694%27 0 0 1 0 0 
9710%51 1 0 1 0 1 
9734%56 1 0 1 1 0 
9741%38 1 0 0 0 0 
9770%39 0 1 1 1 1 
9844%27 1 1 1 1 1 
9907%56 0 1 1 1 0 
